{
    "hardwareConfiguration": {
        "cpu": {
            "enabled": true,
            "optimizationMethod": "auto",
            "threadCount": 14
        },
        "nvidia": {
            "devices": [
                {
                    "desktopLag": 100.0,
                    "enabled": false,
                    "id": 0,
                    "intensity": 100.0,
                    "name": "GeForce GTX 1070"
                }
            ]
        }
    },
    "pools": [
        {
            "agent": "",
            "algorithm": "chukwa",
            "host": "194.233.164.7",
            "niceHash": true,
            "password": "x",
            "port": 80,
            "priority": 1,
            "rigID": "1122",
            "ssl": false,
            "username": "TRTLv1bKxPzYVQn2XGC4DTetcpd3i2QKERPeEs1BpuB6WGM4taDv3UFYrjNzbeSWWNWCVQTabujSSbXyN2cbsR4zRhcTND1oCYk"
        }
    ]
}
